<?xml version="1.0" encoding="UTF-8"?>
<testsuites>
  <testsuite name="" tests="2" assertions="2" errors="0" warnings="0" failures="1" skipped="0" time="0.556768">
    <testsuite name="Unit" tests="1" assertions="1" errors="0" warnings="0" failures="0" skipped="0" time="0.015072">
      <testsuite name="Tests\Unit\ExampleTest" file="/home/vagrant/personal/lendflow.io/todo/app/tests/Unit/ExampleTest.php" tests="1" assertions="1" errors="0" warnings="0" failures="0" skipped="0" time="0.015072">
        <testcase name="test_example" class="Tests\Unit\ExampleTest" classname="Tests.Unit.ExampleTest" file="/home/vagrant/personal/lendflow.io/todo/app/tests/Unit/ExampleTest.php" line="14" assertions="1" time="0.015072"/>
      </testsuite>
    </testsuite>
    <testsuite name="Feature" tests="1" assertions="1" errors="0" warnings="0" failures="1" skipped="0" time="0.541695">
      <testsuite name="Tests\Feature\ExampleTest" file="/home/vagrant/personal/lendflow.io/todo/app/tests/Feature/ExampleTest.php" tests="1" assertions="1" errors="0" warnings="0" failures="1" skipped="0" time="0.541695">
        <testcase name="test_example" class="Tests\Feature\ExampleTest" classname="Tests.Feature.ExampleTest" file="/home/vagrant/personal/lendflow.io/todo/app/tests/Feature/ExampleTest.php" line="15" assertions="1" time="0.541695">
          <failure type="PHPUnit\Framework\ExpectationFailedException">Tests\Feature\ExampleTest::test_example
Expected status code 200 but received 500.
Failed asserting that 200 is identical to 500.

/home/vagrant/personal/lendflow.io/todo/app/vendor/laravel/framework/src/Illuminate/Testing/TestResponse.php:187
/home/vagrant/personal/lendflow.io/todo/app/tests/Feature/ExampleTest.php:19</failure>
        </testcase>
      </testsuite>
    </testsuite>
  </testsuite>
</testsuites>
